Homework4
…
  # Ensure the first column is a list column
  article_df <- tibble::as_tibble(article_df)
  
  # Return the data frame
  return(article_df)
  }
}

Use this function twice

# First Test
query1 <- api_query(query = "sports", from_date = "2024-06-22")
query1

# A tibble: 800 × 3
   id               name             `X[[i]]`
   <chr>            <chr>            <chr>   
 1 <NA>             BBC News         <NA>    
 2 business-insider Business Insider <NA>    
 3 business-insider Business Insider <NA>    
 4 espn             ESPN             <NA>    
 5 <NA>             BBC News         <NA>    
 6 <NA>             ReadWrite        <NA>    
 7 le-monde         Le Monde         <NA>    
 8 espn             ESPN             <NA>    
 9 le-monde         Le Monde         <NA>    
10 le-monde         Le Monde         <NA>    
# ℹ 790 more rows

# Second Test
query2 <- api_query(query = "entertainment", from_date = "2024-06-14")
query2

# A tibble: 800 × 3
   id               name             `X[[i]]`
   <chr>            <chr>            <chr>   
 1 the-verge        The Verge        <NA>    
 2 the-verge        The Verge        <NA>    
 3 business-insider Business Insider <NA>    
 4 the-verge        The Verge        <NA>    
 5 <NA>             Gizmodo.com      <NA>    
 6 wired            Wired            <NA>    
 7 <NA>             Gizmodo.com      <NA>    
 8 <NA>             ReadWrite        <NA>    
 9 <NA>             ReadWrite        <NA>    
10 <NA>             ReadWrite        <NA>    
# ℹ 790 more rows
